{ "2010": [     
            {"date":"2010-08-24","name":"Arlene Hebeisen's holiday"},
            {"date":"2010-09-22","name":"Malena Bourassa's holiday"},
            {"date":"2010-01-06","name":"Audrea Beauregard's holiday"},
            {"date":"2010-01-16","name":"Keitha Greeb's holiday"},
            {"date":"2010-11-11","name":"Wilbur Vanderweel's holiday"},
            {"date":"2010-04-01","name":"Rae Marinos's holiday"},
            {"date":"2010-12-20","name":"Anna Daulton's holiday"},
            {"date":"2010-09-03","name":"Dinorah Schweers's holiday"},
            {"date":"2010-08-11","name":"Lorna Tamburrelli's holiday"},
            {"date":"2010-06-20","name":"Adeline Murtagh's holiday"},                                                                     
            {"date":"2010-08-24","name":"Lorette Gibbings's holiday"}
      ],
      "2011": [],
      "2016": [     
            {"date":"2016-05-19","name":"Stephen Merk's holiday"},
            {"date":"2016-05-22","name":"Esperanza Bazinets holiday"},
            {"date":"2016-08-10","name":"Rozella Kornfield's holiday"},
            {"date":"2016-01-23","name":"Nevada Navarre's holiday"},
            {"date":"2016-01-13","name":"Isaias Stenson's holiday"},
            {"date":"2016-10-12","name":"Sunny Lesmerises's holiday"},
            {"date":"2016-07-02","name":"Lovie Giczewski's holiday"},
            {"date":"2016-08-07","name":"Dillon Harral's holiday"},
            {"date":"2016-12-06","name":"Bula Forys's holiday"},
            {"date":"2016-08-24","name":"Christy Kruger's holiday"},                                                                     
            {"date":"2016-07-26","name":"Vernon Halligan's holiday"}
      ]
}